{
  "comments": [
    {
      "id": 1,
      "text": "bla bla",
      "productId": 2
    }
  ],
  "products": [
    {
      "id": 1,
      "name": "Nutella",
      "cost": 4,
      "img": "https://picsum.photos/id/237/200/300",
      "type": "confezionato"
    },
    {
      "id": 2,
      "name": "Pane",
      "cost": 2,
      "img": "https://picsum.photos/id/235/200/300",
      "type": "fresco"
    },
    {
      "id": 3,
      "name": "Latte",
      "cost": 1,
      "img": "https://picsum.photos/id/232/200/300",
      "type": "fresco"
    },
    {
      "id": 4,
      "name": "Torta",
      "cost": 4,
      "img": "https://picsum.photos/id/231/200/300",
      "type": "fresco"
    },
    {
      "id": 5,
      "name": "Pane",
      "cost": 2,
      "img": "https://picsum.photos/id/230/200/300",
      "type": "confezionato"
    },
    {
      "id": 6,
      "name": "Latte",
      "cost": 1,
      "img": "https://picsum.photos/id/222/200/300",
      "type": "confezionato"
    }
  ]
}
